{
  "assets": [
    "BTC",
    "LTC",
    "ETH",
    "ETC",
    "RRT",
    "ZEC",
    "XMR",
    "DSH",
    "XRP",
    "IOT",
    "EOS",
    "SAN",
    "OMG",
    "NEO",
    "ETP",
    "QTM",
    "AVT",
    "EDO",
    "BTG",
    "DAT",
    "QSH",
    "YYW",
    "GNT",
    "SNT",
    "BAT",
    "MNA",
    "FUN",
    "ZRX",
    "TNB",
    "SPK",
    "TRX",
    "RCN",
    "RLC",
    "AID",
    "SNG",
    "REP",
    "ELF",
    "IOS",
    "AIO",
    "REQ",
    "RDN",
    "LRC",
    "WAX",
    "DAI",
    "AGI",
    "BFT",
    "MTN",
    "ODE",
    "ANT",
    "DTH",
    "MIT",
    "STJ",
    "XLM",
    "XVG",
    "BCI",
    "MKR",
    "KNC",
    "POA",
    "LYM",
    "UTK",
    "VEE",
    "DAD",
    "ORS",
    "AUC",
    "POY",
    "FSN",
    "CBT",
    "ZCN",
    "SEN",
    "NCA",
    "CND",
    "CTX",
    "PAI",
    "SEE",
    "ESS",
    "ATM",
    "HOT",
    "DTA",
    "IQX",
    "WPR",
    "ZIL",
    "BNT",
    "ABS",
    "XRA",
    "MAN",
    "BBN",
    "NIO",
    "DGX",
    "VET",
    "UTN",
    "TKN",
    "GOT",
    "XTZ",
    "CNN",
    "BOX",
    "MGO",
    "RTE",
    "YGG",
    "MLN",
    "WTC",
    "CSX",
    "OMN",
    "INT",
    "DRN",
    "PNK",
    "DGB",
    "BSV",
    "BAB",
    "WLO",
    "VLD",
    "ENJ",
    "ONL",
    "RBT",
    "UST",
    "EUT",
    "GSD",
    "UDC",
    "TSD",
    "PAX",
    "RIF",
    "PAS",
    "VSY",
    "BTT",
    "CLO",
    "IMP"
  ],
  "currencies": [
    "USD",
    "BTC",
    "EUR",
    "JPY",
    "ETH",
    "GBP",
    "EOS",
    "XLM",
    "DAI",
    "UST"
  ],
  "markets": [
    {
      "pair": [
        "USD",
        "BTC"
      ],
      "minimalOrder": {
        "amount": "0.004",
        "unit": "asset"
      }
    },
    {
      "pair": [
        "USD",
        "LTC"
      ],
      "minimalOrder": {
        "amount": "0.4",
        "unit": "asset"
      }
    },
    {
      "pair": [
        "BTC",
        "LTC"
      ],
      "minimalOrder": {
        "amount": "0.4",
        "unit": "asset"
      }
    },
    {
      "pair": [
        "USD",
        "ETH"
      ],
      "minimalOrder": {
        "amount": "0.2",
        "unit": "asset"
      }
    },
    {
      "pair": [
        "BTC",
        "ETH"
      ],
      "minimalOrder": {
        "amount": "0.2",
        "unit": "asset"
      }
    },
    {
      "pair": [
        "BTC",
        "ETC"
      ],
      "minimalOrder": {
        "amount": "2.0",
        "unit": "asset"
      }
    },
    {
      "pair": [
        "USD",
        "ETC"
      ],
      "minimalOrder": {
        "amount": "2.0",
        "unit": "asset"
      }
    },
    {
      "pair": [
        "USD",
        "RRT"
      ],
      "minimalOrder": {
        "amount": "294.0",
        "unit": "asset"
      }
    },
    {
      "pair": [
        "BTC",
        "RRT"
      ],
      "minimalOrder": {
        "amount": "294.0",
        "unit": "asset"
      }
    },
    {
      "pair": [
        "USD",
        "ZEC"
      ],
      "minimalOrder": {
        "amount": "0.2",
        "unit": "asset"
      }
    },
    {
      "pair": [
        "BTC",
        "ZEC"
      ],
      "minimalOrder": {
        "amount": "0.2",
        "unit": "asset"
      }
    },
    {
      "pair": [
        "USD",
        "XMR"
      ],
      "minimalOrder": {
        "amount": "0.2",
        "unit": "asset"
      }
    },
    {
      "pair": [
        "BTC",
        "XMR"
      ],
      "minimalOrder": {
        "amount": "0.2",
        "unit": "asset"
      }
    },
    {
      "pair": [
        "USD",
        "DSH"
      ],
      "minimalOrder": {
        "amount": "0.2",
        "unit": "asset"
      }
    },
    {
      "pair": [
        "BTC",
        "DSH"
      ],
      "minimalOrder": {
        "amount": "0.2",
        "unit": "asset"
      }
    },
    {
      "pair": [
        "EUR",
        "BTC"
      ],
      "minimalOrder": {
        "amount": "0.004",
        "unit": "asset"
      }
    },
    {
      "pair": [
        "JPY",
        "BTC"
      ],
      "minimalOrder": {
        "amount": "0.004",
        "unit": "asset"
      }
    },
    {
      "pair": [
        "USD",
        "XRP"
      ],
      "minimalOrder": {
        "amount": "38.0",
        "unit": "asset"
      }
    },
    {
      "pair": [
        "BTC",
        "XRP"
      ],
      "minimalOrder": {
        "amount": "38.0",
        "unit": "asset"
      }
    },
    {
      "pair": [
        "USD",
        "IOT"
      ],
      "minimalOrder": {
        "amount": "46.0",
        "unit": "asset"
      }
    },
    {
      "pair": [
        "BTC",
        "IOT"
      ],
      "minimalOrder": {
        "amount": "46.0",
        "unit": "asset"
      }
    },
    {
      "pair": [
        "ETH",
        "IOT"
      ],
      "minimalOrder": {
        "amount": "46.0",
        "unit": "asset"
      }
    },
    {
      "pair": [
        "USD",
        "EOS"
      ],
      "minimalOrder": {
        "amount": "6.0",
        "unit": "asset"
      }
    },
    {
      "pair": [
        "BTC",
        "EOS"
      ],
      "minimalOrder": {
        "amount": "6.0",
        "unit": "asset"
      }
    },
    {
      "pair": [
        "ETH",
        "EOS"
      ],
      "minimalOrder": {
        "amount": "6.0",
        "unit": "asset"
      }
    },
    {
      "pair": [
        "USD",
        "SAN"
      ],
      "minimalOrder": {
        "amount": "44.0",
        "unit": "asset"
      }
    },
    {
      "pair": [
        "BTC",
        "SAN"
      ],
      "minimalOrder": {
        "amount": "44.0",
        "unit": "asset"
      }
    },
    {
      "pair": [
        "ETH",
        "SAN"
      ],
      "minimalOrder": {
        "amount": "44.0",
        "unit": "asset"
      }
    },
    {
      "pair": [
        "USD",
        "OMG"
      ],
      "minimalOrder": {
        "amount": "10.0",
        "unit": "asset"
      }
    },
    {
      "pair": [
        "BTC",
        "OMG"
      ],
      "minimalOrder": {
        "amount": "10.0",
        "unit": "asset"
      }
    },
    {
      "pair": [
        "ETH",
        "OMG"
      ],
      "minimalOrder": {
        "amount": "10.0",
        "unit": "asset"
      }
    },
    {
      "pair": [
        "USD",
        "NEO"
      ],
      "minimalOrder": {
        "amount": "2.0",
        "unit": "asset"
      }
    },
    {
      "pair": [
        "BTC",
        "NEO"
      ],
      "minimalOrder": {
        "amount": "2.0",
        "unit": "asset"
      }
    },
    {
      "pair": [
        "ETH",
        "NEO"
      ],
      "minimalOrder": {
        "amount": "2.0",
        "unit": "asset"
      }
    },
    {
      "pair": [
        "USD",
        "ETP"
      ],
      "minimalOrder": {
        "amount": "22.0",
        "unit": "asset"
      }
    },
    {
      "pair": [
        "BTC",
        "ETP"
      ],
      "minimalOrder": {
        "amount": "22.0",
        "unit": "asset"
      }
    },
    {
      "pair": [
        "ETH",
        "ETP"
      ],
      "minimalOrder": {
        "amount": "22.0",
        "unit": "asset"
      }
    },
    {
      "pair": [
        "USD",
        "QTM"
      ],
      "minimalOrder": {
        "amount": "6.0",
        "unit": "asset"
      }
    },
    {
      "pair": [
        "BTC",
        "QTM"
      ],
      "minimalOrder": {
        "amount": "6.0",
        "unit": "asset"
      }
    },
    {
      "pair": [
        "ETH",
        "QTM"
      ],
      "minimalOrder": {
        "amount": "6.0",
        "unit": "asset"
      }
    },
    {
      "pair": [
        "USD",
        "AVT"
      ],
      "minimalOrder": {
        "amount": "76.0",
        "unit": "asset"
      }
    },
    {
      "pair": [
        "BTC",
        "AVT"
      ],
      "minimalOrder": {
        "amount": "76.0",
        "unit": "asset"
      }
    },
    {
      "pair": [
        "ETH",
        "AVT"
      ],
      "minimalOrder": {
        "amount": "76.0",
        "unit": "asset"
      }
    },
    {
      "pair": [
        "USD",
        "EDO"
      ],
      "minimalOrder": {
        "amount": "16.0",
        "unit": "asset"
      }
    },
    {
      "pair": [
        "BTC",
        "EDO"
      ],
      "minimalOrder": {
        "amount": "16.0",
        "unit": "asset"
      }
    },
    {
      "pair": [
        "ETH",
        "EDO"
      ],
      "minimalOrder": {
        "amount": "16.0",
        "unit": "asset"
      }
    },
    {
      "pair": [
        "USD",
        "BTG"
      ],
      "minimalOrder": {
        "amount": "2.0",
        "unit": "asset"
      }
    },
    {
      "pair": [
        "BTC",
        "BTG"
      ],
      "minimalOrder": {
        "amount": "2.0",
        "unit": "asset"
      }
    },
    {
      "pair": [
        "USD",
        "DAT"
      ],
      "minimalOrder": {
        "amount": "682.0",
        "unit": "asset"
      }
    },
    {
      "pair": [
        "BTC",
        "DAT"
      ],
      "minimalOrder": {
        "amount": "682.0",
        "unit": "asset"
      }
    },
    {
      "pair": [
        "ETH",
        "DAT"
      ],
      "minimalOrder": {
        "amount": "682.0",
        "unit": "asset"
      }
    },
    {
      "pair": [
        "USD",
        "QSH"
      ],
      "minimalOrder": {
        "amount": "154.0",
        "unit": "asset"
      }
    },
    {
      "pair": [
        "BTC",
        "QSH"
      ],
      "minimalOrder": {
        "amount": "154.0",
        "unit": "asset"
      }
    },
    {
      "pair": [
        "ETH",
        "QSH"
      ],
      "minimalOrder": {
        "amount": "154.0",
        "unit": "asset"
      }
    },
    {
      "pair": [
        "USD",
        "YYW"
      ],
      "minimalOrder": {
        "amount": "800.0",
        "unit": "asset"
      }
    },
    {
      "pair": [
        "BTC",
        "YYW"
      ],
      "minimalOrder": {
        "amount": "800.0",
        "unit": "asset"
      }
    },
    {
      "pair": [
        "ETH",
        "YYW"
      ],
      "minimalOrder": {
        "amount": "800.0",
        "unit": "asset"
      }
    },
    {
      "pair": [
        "USD",
        "GNT"
      ],
      "minimalOrder": {
        "amount": "184.0",
        "unit": "asset"
      }
    },
    {
      "pair": [
        "BTC",
        "GNT"
      ],
      "minimalOrder": {
        "amount": "184.0",
        "unit": "asset"
      }
    },
    {
      "pair": [
        "ETH",
        "GNT"
      ],
      "minimalOrder": {
        "amount": "184.0",
        "unit": "asset"
      }
    },
    {
      "pair": [
        "USD",
        "SNT"
      ],
      "minimalOrder": {
        "amount": "706.0",
        "unit": "asset"
      }
    },
    {
      "pair": [
        "BTC",
        "SNT"
      ],
      "minimalOrder": {
        "amount": "706.0",
        "unit": "asset"
      }
    },
    {
      "pair": [
        "ETH",
        "SNT"
      ],
      "minimalOrder": {
        "amount": "706.0",
        "unit": "asset"
      }
    },
    {
      "pair": [
        "EUR",
        "IOT"
      ],
      "minimalOrder": {
        "amount": "46.0",
        "unit": "asset"
      }
    },
    {
      "pair": [
        "USD",
        "BAT"
      ],
      "minimalOrder": {
        "amount": "86.0",
        "unit": "asset"
      }
    },
    {
      "pair": [
        "BTC",
        "BAT"
      ],
      "minimalOrder": {
        "amount": "86.0",
        "unit": "asset"
      }
    },
    {
      "pair": [
        "ETH",
        "BAT"
      ],
      "minimalOrder": {
        "amount": "86.0",
        "unit": "asset"
      }
    },
    {
      "pair": [
        "USD",
        "MNA"
      ],
      "minimalOrder": {
        "amount": "310.0",
        "unit": "asset"
      }
    },
    {
      "pair": [
        "BTC",
        "MNA"
      ],
      "minimalOrder": {
        "amount": "310.0",
        "unit": "asset"
      }
    },
    {
      "pair": [
        "ETH",
        "MNA"
      ],
      "minimalOrder": {
        "amount": "310.0",
        "unit": "asset"
      }
    },
    {
      "pair": [
        "USD",
        "FUN"
      ],
      "minimalOrder": {
        "amount": "2842.0",
        "unit": "asset"
      }
    },
    {
      "pair": [
        "BTC",
        "FUN"
      ],
      "minimalOrder": {
        "amount": "2842.0",
        "unit": "asset"
      }
    },
    {
      "pair": [
        "ETH",
        "FUN"
      ],
      "minimalOrder": {
        "amount": "2842.0",
        "unit": "asset"
      }
    },
    {
      "pair": [
        "USD",
        "ZRX"
      ],
      "minimalOrder": {
        "amount": "44.0",
        "unit": "asset"
      }
    },
    {
      "pair": [
        "BTC",
        "ZRX"
      ],
      "minimalOrder": {
        "amount": "44.0",
        "unit": "asset"
      }
    },
    {
      "pair": [
        "ETH",
        "ZRX"
      ],
      "minimalOrder": {
        "amount": "44.0",
        "unit": "asset"
      }
    },
    {
      "pair": [
        "USD",
        "TNB"
      ],
      "minimalOrder": {
        "amount": "3788.0",
        "unit": "asset"
      }
    },
    {
      "pair": [
        "BTC",
        "TNB"
      ],
      "minimalOrder": {
        "amount": "3788.0",
        "unit": "asset"
      }
    },
    {
      "pair": [
        "ETH",
        "TNB"
      ],
      "minimalOrder": {
        "amount": "3788.0",
        "unit": "asset"
      }
    },
    {
      "pair": [
        "USD",
        "SPK"
      ],
      "minimalOrder": {
        "amount": "1320.0",
        "unit": "asset"
      }
    },
    {
      "pair": [
        "BTC",
        "SPK"
      ],
      "minimalOrder": {
        "amount": "1320.0",
        "unit": "asset"
      }
    },
    {
      "pair": [
        "ETH",
        "SPK"
      ],
      "minimalOrder": {
        "amount": "1320.0",
        "unit": "asset"
      }
    },
    {
      "pair": [
        "USD",
        "TRX"
      ],
      "minimalOrder": {
        "amount": "838.0",
        "unit": "asset"
      }
    },
    {
      "pair": [
        "BTC",
        "TRX"
      ],
      "minimalOrder": {
        "amount": "838.0",
        "unit": "asset"
      }
    },
    {
      "pair": [
        "ETH",
        "TRX"
      ],
      "minimalOrder": {
        "amount": "838.0",
        "unit": "asset"
      }
    },
    {
      "pair": [
        "USD",
        "RCN"
      ],
      "minimalOrder": {
        "amount": "736.0",
        "unit": "asset"
      }
    },
    {
      "pair": [
        "BTC",
        "RCN"
      ],
      "minimalOrder": {
        "amount": "736.0",
        "unit": "asset"
      }
    },
    {
      "pair": [
        "ETH",
        "RCN"
      ],
      "minimalOrder": {
        "amount": "736.0",
        "unit": "asset"
      }
    },
    {
      "pair": [
        "USD",
        "RLC"
      ],
      "minimalOrder": {
        "amount": "48.0",
        "unit": "asset"
      }
    },
    {
      "pair": [
        "BTC",
        "RLC"
      ],
      "minimalOrder": {
        "amount": "48.0",
        "unit": "asset"
      }
    },
    {
      "pair": [
        "ETH",
        "RLC"
      ],
      "minimalOrder": {
        "amount": "48.0",
        "unit": "asset"
      }
    },
    {
      "pair": [
        "USD",
        "AID"
      ],
      "minimalOrder": {
        "amount": "426.0",
        "unit": "asset"
      }
    },
    {
      "pair": [
        "BTC",
        "AID"
      ],
      "minimalOrder": {
        "amount": "426.0",
        "unit": "asset"
      }
    },
    {
      "pair": [
        "ETH",
        "AID"
      ],
      "minimalOrder": {
        "amount": "426.0",
        "unit": "asset"
      }
    },
    {
      "pair": [
        "USD",
        "SNG"
      ],
      "minimalOrder": {
        "amount": "1002.0",
        "unit": "asset"
      }
    },
    {
      "pair": [
        "BTC",
        "SNG"
      ],
      "minimalOrder": {
        "amount": "1002.0",
        "unit": "asset"
      }
    },
    {
      "pair": [
        "ETH",
        "SNG"
      ],
      "minimalOrder": {
        "amount": "1002.0",
        "unit": "asset"
      }
    },
    {
      "pair": [
        "USD",
        "REP"
      ],
      "minimalOrder": {
        "amount": "2.0",
        "unit": "asset"
      }
    },
    {
      "pair": [
        "BTC",
        "REP"
      ],
      "minimalOrder": {
        "amount": "2.0",
        "unit": "asset"
      }
    },
    {
      "pair": [
        "ETH",
        "REP"
      ],
      "minimalOrder": {
        "amount": "2.0",
        "unit": "asset"
      }
    },
    {
      "pair": [
        "USD",
        "ELF"
      ],
      "minimalOrder": {
        "amount": "98.0",
        "unit": "asset"
      }
    },
    {
      "pair": [
        "BTC",
        "ELF"
      ],
      "minimalOrder": {
        "amount": "98.0",
        "unit": "asset"
      }
    },
    {
      "pair": [
        "ETH",
        "ELF"
      ],
      "minimalOrder": {
        "amount": "98.0",
        "unit": "asset"
      }
    },
    {
      "pair": [
        "GBP",
        "BTC"
      ],
      "minimalOrder": {
        "amount": "0.004",
        "unit": "asset"
      }
    },
    {
      "pair": [
        "EUR",
        "ETH"
      ],
      "minimalOrder": {
        "amount": "0.2",
        "unit": "asset"
      }
    },
    {
      "pair": [
        "JPY",
        "ETH"
      ],
      "minimalOrder": {
        "amount": "0.2",
        "unit": "asset"
      }
    },
    {
      "pair": [
        "GBP",
        "ETH"
      ],
      "minimalOrder": {
        "amount": "0.2",
        "unit": "asset"
      }
    },
    {
      "pair": [
        "EUR",
        "NEO"
      ],
      "minimalOrder": {
        "amount": "2.0",
        "unit": "asset"
      }
    },
    {
      "pair": [
        "JPY",
        "NEO"
      ],
      "minimalOrder": {
        "amount": "2.0",
        "unit": "asset"
      }
    },
    {
      "pair": [
        "GBP",
        "NEO"
      ],
      "minimalOrder": {
        "amount": "2.0",
        "unit": "asset"
      }
    },
    {
      "pair": [
        "EUR",
        "EOS"
      ],
      "minimalOrder": {
        "amount": "6.0",
        "unit": "asset"
      }
    },
    {
      "pair": [
        "JPY",
        "EOS"
      ],
      "minimalOrder": {
        "amount": "6.0",
        "unit": "asset"
      }
    },
    {
      "pair": [
        "GBP",
        "EOS"
      ],
      "minimalOrder": {
        "amount": "6.0",
        "unit": "asset"
      }
    },
    {
      "pair": [
        "JPY",
        "IOT"
      ],
      "minimalOrder": {
        "amount": "46.0",
        "unit": "asset"
      }
    },
    {
      "pair": [
        "GBP",
        "IOT"
      ],
      "minimalOrder": {
        "amount": "46.0",
        "unit": "asset"
      }
    },
    {
      "pair": [
        "USD",
        "IOS"
      ],
      "minimalOrder": {
        "amount": "2346.0",
        "unit": "asset"
      }
    },
    {
      "pair": [
        "BTC",
        "IOS"
      ],
      "minimalOrder": {
        "amount": "2346.0",
        "unit": "asset"
      }
    },
    {
      "pair": [
        "ETH",
        "IOS"
      ],
      "minimalOrder": {
        "amount": "2346.0",
        "unit": "asset"
      }
    },
    {
      "pair": [
        "USD",
        "AIO"
      ],
      "minimalOrder": {
        "amount": "88.0",
        "unit": "asset"
      }
    },
    {
      "pair": [
        "BTC",
        "AIO"
      ],
      "minimalOrder": {
        "amount": "88.0",
        "unit": "asset"
      }
    },
    {
      "pair": [
        "ETH",
        "AIO"
      ],
      "minimalOrder": {
        "amount": "88.0",
        "unit": "asset"
      }
    },
    {
      "pair": [
        "USD",
        "REQ"
      ],
      "minimalOrder": {
        "amount": "512.0",
        "unit": "asset"
      }
    },
    {
      "pair": [
        "BTC",
        "REQ"
      ],
      "minimalOrder": {
        "amount": "512.0",
        "unit": "asset"
      }
    },
    {
      "pair": [
        "ETH",
        "REQ"
      ],
      "minimalOrder": {
        "amount": "512.0",
        "unit": "asset"
      }
    },
    {
      "pair": [
        "USD",
        "RDN"
      ],
      "minimalOrder": {
        "amount": "46.0",
        "unit": "asset"
      }
    },
    {
      "pair": [
        "BTC",
        "RDN"
      ],
      "minimalOrder": {
        "amount": "46.0",
        "unit": "asset"
      }
    },
    {
      "pair": [
        "ETH",
        "RDN"
      ],
      "minimalOrder": {
        "amount": "46.0",
        "unit": "asset"
      }
    },
    {
      "pair": [
        "USD",
        "LRC"
      ],
      "minimalOrder": {
        "amount": "258.0",
        "unit": "asset"
      }
    },
    {
      "pair": [
        "BTC",
        "LRC"
      ],
      "minimalOrder": {
        "amount": "258.0",
        "unit": "asset"
      }
    },
    {
      "pair": [
        "ETH",
        "LRC"
      ],
      "minimalOrder": {
        "amount": "258.0",
        "unit": "asset"
      }
    },
    {
      "pair": [
        "USD",
        "WAX"
      ],
      "minimalOrder": {
        "amount": "302.0",
        "unit": "asset"
      }
    },
    {
      "pair": [
        "BTC",
        "WAX"
      ],
      "minimalOrder": {
        "amount": "302.0",
        "unit": "asset"
      }
    },
    {
      "pair": [
        "ETH",
        "WAX"
      ],
      "minimalOrder": {
        "amount": "302.0",
        "unit": "asset"
      }
    },
    {
      "pair": [
        "USD",
        "DAI"
      ],
      "minimalOrder": {
        "amount": "10.0",
        "unit": "asset"
      }
    },
    {
      "pair": [
        "BTC",
        "DAI"
      ],
      "minimalOrder": {
        "amount": "10.0",
        "unit": "asset"
      }
    },
    {
      "pair": [
        "ETH",
        "DAI"
      ],
      "minimalOrder": {
        "amount": "10.0",
        "unit": "asset"
      }
    },
    {
      "pair": [
        "USD",
        "AGI"
      ],
      "minimalOrder": {
        "amount": "312.0",
        "unit": "asset"
      }
    },
    {
      "pair": [
        "BTC",
        "AGI"
      ],
      "minimalOrder": {
        "amount": "312.0",
        "unit": "asset"
      }
    },
    {
      "pair": [
        "ETH",
        "AGI"
      ],
      "minimalOrder": {
        "amount": "312.0",
        "unit": "asset"
      }
    },
    {
      "pair": [
        "USD",
        "BFT"
      ],
      "minimalOrder": {
        "amount": "552.0",
        "unit": "asset"
      }
    },
    {
      "pair": [
        "BTC",
        "BFT"
      ],
      "minimalOrder": {
        "amount": "552.0",
        "unit": "asset"
      }
    },
    {
      "pair": [
        "ETH",
        "BFT"
      ],
      "minimalOrder": {
        "amount": "552.0",
        "unit": "asset"
      }
    },
    {
      "pair": [
        "USD",
        "MTN"
      ],
      "minimalOrder": {
        "amount": "2072.0",
        "unit": "asset"
      }
    },
    {
      "pair": [
        "BTC",
        "MTN"
      ],
      "minimalOrder": {
        "amount": "2072.0",
        "unit": "asset"
      }
    },
    {
      "pair": [
        "ETH",
        "MTN"
      ],
      "minimalOrder": {
        "amount": "2072.0",
        "unit": "asset"
      }
    },
    {
      "pair": [
        "USD",
        "ODE"
      ],
      "minimalOrder": {
        "amount": "84.0",
        "unit": "asset"
      }
    },
    {
      "pair": [
        "BTC",
        "ODE"
      ],
      "minimalOrder": {
        "amount": "84.0",
        "unit": "asset"
      }
    },
    {
      "pair": [
        "ETH",
        "ODE"
      ],
      "minimalOrder": {
        "amount": "84.0",
        "unit": "asset"
      }
    },
    {
      "pair": [
        "USD",
        "ANT"
      ],
      "minimalOrder": {
        "amount": "36.0",
        "unit": "asset"
      }
    },
    {
      "pair": [
        "BTC",
        "ANT"
      ],
      "minimalOrder": {
        "amount": "36.0",
        "unit": "asset"
      }
    },
    {
      "pair": [
        "ETH",
        "ANT"
      ],
      "minimalOrder": {
        "amount": "36.0",
        "unit": "asset"
      }
    },
    {
      "pair": [
        "USD",
        "DTH"
      ],
      "minimalOrder": {
        "amount": "1620.0",
        "unit": "asset"
      }
    },
    {
      "pair": [
        "BTC",
        "DTH"
      ],
      "minimalOrder": {
        "amount": "1620.0",
        "unit": "asset"
      }
    },
    {
      "pair": [
        "ETH",
        "DTH"
      ],
      "minimalOrder": {
        "amount": "1620.0",
        "unit": "asset"
      }
    },
    {
      "pair": [
        "USD",
        "MIT"
      ],
      "minimalOrder": {
        "amount": "308.0",
        "unit": "asset"
      }
    },
    {
      "pair": [
        "BTC",
        "MIT"
      ],
      "minimalOrder": {
        "amount": "308.0",
        "unit": "asset"
      }
    },
    {
      "pair": [
        "ETH",
        "MIT"
      ],
      "minimalOrder": {
        "amount": "308.0",
        "unit": "asset"
      }
    },
    {
      "pair": [
        "USD",
        "STJ"
      ],
      "minimalOrder": {
        "amount": "74.0",
        "unit": "asset"
      }
    },
    {
      "pair": [
        "BTC",
        "STJ"
      ],
      "minimalOrder": {
        "amount": "74.0",
        "unit": "asset"
      }
    },
    {
      "pair": [
        "ETH",
        "STJ"
      ],
      "minimalOrder": {
        "amount": "74.0",
        "unit": "asset"
      }
    },
    {
      "pair": [
        "USD",
        "XLM"
      ],
      "minimalOrder": {
        "amount": "134.0",
        "unit": "asset"
      }
    },
    {
      "pair": [
        "EUR",
        "XLM"
      ],
      "minimalOrder": {
        "amount": "134.0",
        "unit": "asset"
      }
    },
    {
      "pair": [
        "JPY",
        "XLM"
      ],
      "minimalOrder": {
        "amount": "134.0",
        "unit": "asset"
      }
    },
    {
      "pair": [
        "GBP",
        "XLM"
      ],
      "minimalOrder": {
        "amount": "134.0",
        "unit": "asset"
      }
    },
    {
      "pair": [
        "BTC",
        "XLM"
      ],
      "minimalOrder": {
        "amount": "134.0",
        "unit": "asset"
      }
    },
    {
      "pair": [
        "ETH",
        "XLM"
      ],
      "minimalOrder": {
        "amount": "134.0",
        "unit": "asset"
      }
    },
    {
      "pair": [
        "USD",
        "XVG"
      ],
      "minimalOrder": {
        "amount": "1780.0",
        "unit": "asset"
      }
    },
    {
      "pair": [
        "EUR",
        "XVG"
      ],
      "minimalOrder": {
        "amount": "1780.0",
        "unit": "asset"
      }
    },
    {
      "pair": [
        "JPY",
        "XVG"
      ],
      "minimalOrder": {
        "amount": "1780.0",
        "unit": "asset"
      }
    },
    {
      "pair": [
        "GBP",
        "XVG"
      ],
      "minimalOrder": {
        "amount": "1780.0",
        "unit": "asset"
      }
    },
    {
      "pair": [
        "BTC",
        "XVG"
      ],
      "minimalOrder": {
        "amount": "1780.0",
        "unit": "asset"
      }
    },
    {
      "pair": [
        "ETH",
        "XVG"
      ],
      "minimalOrder": {
        "amount": "1780.0",
        "unit": "asset"
      }
    },
    {
      "pair": [
        "USD",
        "BCI"
      ],
      "minimalOrder": {
        "amount": "94.0",
        "unit": "asset"
      }
    },
    {
      "pair": [
        "BTC",
        "BCI"
      ],
      "minimalOrder": {
        "amount": "94.0",
        "unit": "asset"
      }
    },
    {
      "pair": [
        "USD",
        "MKR"
      ],
      "minimalOrder": {
        "amount": "0.04",
        "unit": "asset"
      }
    },
    {
      "pair": [
        "BTC",
        "MKR"
      ],
      "minimalOrder": {
        "amount": "0.04",
        "unit": "asset"
      }
    },
    {
      "pair": [
        "ETH",
        "MKR"
      ],
      "minimalOrder": {
        "amount": "0.04",
        "unit": "asset"
      }
    },
    {
      "pair": [
        "USD",
        "KNC"
      ],
      "minimalOrder": {
        "amount": "76.0",
        "unit": "asset"
      }
    },
    {
      "pair": [
        "BTC",
        "KNC"
      ],
      "minimalOrder": {
        "amount": "76.0",
        "unit": "asset"
      }
    },
    {
      "pair": [
        "ETH",
        "KNC"
      ],
      "minimalOrder": {
        "amount": "76.0",
        "unit": "asset"
      }
    },
    {
      "pair": [
        "USD",
        "POA"
      ],
      "minimalOrder": {
        "amount": "376.0",
        "unit": "asset"
      }
    },
    {
      "pair": [
        "BTC",
        "POA"
      ],
      "minimalOrder": {
        "amount": "376.0",
        "unit": "asset"
      }
    },
    {
      "pair": [
        "ETH",
        "POA"
      ],
      "minimalOrder": {
        "amount": "376.0",
        "unit": "asset"
      }
    },
    {
      "pair": [
        "USD",
        "LYM"
      ],
      "minimalOrder": {
        "amount": "1740.0",
        "unit": "asset"
      }
    },
    {
      "pair": [
        "BTC",
        "LYM"
      ],
      "minimalOrder": {
        "amount": "1740.0",
        "unit": "asset"
      }
    },
    {
      "pair": [
        "ETH",
        "LYM"
      ],
      "minimalOrder": {
        "amount": "1740.0",
        "unit": "asset"
      }
    },
    {
      "pair": [
        "USD",
        "UTK"
      ],
      "minimalOrder": {
        "amount": "490.0",
        "unit": "asset"
      }
    },
    {
      "pair": [
        "BTC",
        "UTK"
      ],
      "minimalOrder": {
        "amount": "490.0",
        "unit": "asset"
      }
    },
    {
      "pair": [
        "ETH",
        "UTK"
      ],
      "minimalOrder": {
        "amount": "490.0",
        "unit": "asset"
      }
    },
    {
      "pair": [
        "USD",
        "VEE"
      ],
      "minimalOrder": {
        "amount": "3240.0",
        "unit": "asset"
      }
    },
    {
      "pair": [
        "BTC",
        "VEE"
      ],
      "minimalOrder": {
        "amount": "3240.0",
        "unit": "asset"
      }
    },
    {
      "pair": [
        "ETH",
        "VEE"
      ],
      "minimalOrder": {
        "amount": "3240.0",
        "unit": "asset"
      }
    },
    {
      "pair": [
        "USD",
        "DAD"
      ],
      "minimalOrder": {
        "amount": "356.0",
        "unit": "asset"
      }
    },
    {
      "pair": [
        "BTC",
        "DAD"
      ],
      "minimalOrder": {
        "amount": "356.0",
        "unit": "asset"
      }
    },
    {
      "pair": [
        "ETH",
        "DAD"
      ],
      "minimalOrder": {
        "amount": "356.0",
        "unit": "asset"
      }
    },
    {
      "pair": [
        "USD",
        "ORS"
      ],
      "minimalOrder": {
        "amount": "476.0",
        "unit": "asset"
      }
    },
    {
      "pair": [
        "BTC",
        "ORS"
      ],
      "minimalOrder": {
        "amount": "476.0",
        "unit": "asset"
      }
    },
    {
      "pair": [
        "ETH",
        "ORS"
      ],
      "minimalOrder": {
        "amount": "476.0",
        "unit": "asset"
      }
    },
    {
      "pair": [
        "USD",
        "AUC"
      ],
      "minimalOrder": {
        "amount": "778.0",
        "unit": "asset"
      }
    },
    {
      "pair": [
        "BTC",
        "AUC"
      ],
      "minimalOrder": {
        "amount": "778.0",
        "unit": "asset"
      }
    },
    {
      "pair": [
        "ETH",
        "AUC"
      ],
      "minimalOrder": {
        "amount": "778.0",
        "unit": "asset"
      }
    },
    {
      "pair": [
        "USD",
        "POY"
      ],
      "minimalOrder": {
        "amount": "106.0",
        "unit": "asset"
      }
    },
    {
      "pair": [
        "BTC",
        "POY"
      ],
      "minimalOrder": {
        "amount": "106.0",
        "unit": "asset"
      }
    },
    {
      "pair": [
        "ETH",
        "POY"
      ],
      "minimalOrder": {
        "amount": "106.0",
        "unit": "asset"
      }
    },
    {
      "pair": [
        "USD",
        "FSN"
      ],
      "minimalOrder": {
        "amount": "32.0",
        "unit": "asset"
      }
    },
    {
      "pair": [
        "BTC",
        "FSN"
      ],
      "minimalOrder": {
        "amount": "32.0",
        "unit": "asset"
      }
    },
    {
      "pair": [
        "ETH",
        "FSN"
      ],
      "minimalOrder": {
        "amount": "32.0",
        "unit": "asset"
      }
    },
    {
      "pair": [
        "USD",
        "CBT"
      ],
      "minimalOrder": {
        "amount": "1052.0",
        "unit": "asset"
      }
    },
    {
      "pair": [
        "BTC",
        "CBT"
      ],
      "minimalOrder": {
        "amount": "1052.0",
        "unit": "asset"
      }
    },
    {
      "pair": [
        "ETH",
        "CBT"
      ],
      "minimalOrder": {
        "amount": "1052.0",
        "unit": "asset"
      }
    },
    {
      "pair": [
        "USD",
        "ZCN"
      ],
      "minimalOrder": {
        "amount": "160.0",
        "unit": "asset"
      }
    },
    {
      "pair": [
        "BTC",
        "ZCN"
      ],
      "minimalOrder": {
        "amount": "160.0",
        "unit": "asset"
      }
    },
    {
      "pair": [
        "ETH",
        "ZCN"
      ],
      "minimalOrder": {
        "amount": "160.0",
        "unit": "asset"
      }
    },
    {
      "pair": [
        "USD",
        "SEN"
      ],
      "minimalOrder": {
        "amount": "8726.0",
        "unit": "asset"
      }
    },
    {
      "pair": [
        "BTC",
        "SEN"
      ],
      "minimalOrder": {
        "amount": "8726.0",
        "unit": "asset"
      }
    },
    {
      "pair": [
        "ETH",
        "SEN"
      ],
      "minimalOrder": {
        "amount": "8726.0",
        "unit": "asset"
      }
    },
    {
      "pair": [
        "USD",
        "NCA"
      ],
      "minimalOrder": {
        "amount": "5976.0",
        "unit": "asset"
      }
    },
    {
      "pair": [
        "BTC",
        "NCA"
      ],
      "minimalOrder": {
        "amount": "5976.0",
        "unit": "asset"
      }
    },
    {
      "pair": [
        "ETH",
        "NCA"
      ],
      "minimalOrder": {
        "amount": "5976.0",
        "unit": "asset"
      }
    },
    {
      "pair": [
        "USD",
        "CND"
      ],
      "minimalOrder": {
        "amount": "988.0",
        "unit": "asset"
      }
    },
    {
      "pair": [
        "BTC",
        "CND"
      ],
      "minimalOrder": {
        "amount": "988.0",
        "unit": "asset"
      }
    },
    {
      "pair": [
        "ETH",
        "CND"
      ],
      "minimalOrder": {
        "amount": "988.0",
        "unit": "asset"
      }
    },
    {
      "pair": [
        "USD",
        "CTX"
      ],
      "minimalOrder": {
        "amount": "102.0",
        "unit": "asset"
      }
    },
    {
      "pair": [
        "BTC",
        "CTX"
      ],
      "minimalOrder": {
        "amount": "102.0",
        "unit": "asset"
      }
    },
    {
      "pair": [
        "ETH",
        "CTX"
      ],
      "minimalOrder": {
        "amount": "102.0",
        "unit": "asset"
      }
    },
    {
      "pair": [
        "USD",
        "PAI"
      ],
      "minimalOrder": {
        "amount": "358.0",
        "unit": "asset"
      }
    },
    {
      "pair": [
        "BTC",
        "PAI"
      ],
      "minimalOrder": {
        "amount": "358.0",
        "unit": "asset"
      }
    },
    {
      "pair": [
        "USD",
        "SEE"
      ],
      "minimalOrder": {
        "amount": "21740.0",
        "unit": "asset"
      }
    },
    {
      "pair": [
        "BTC",
        "SEE"
      ],
      "minimalOrder": {
        "amount": "21740.0",
        "unit": "asset"
      }
    },
    {
      "pair": [
        "ETH",
        "SEE"
      ],
      "minimalOrder": {
        "amount": "21740.0",
        "unit": "asset"
      }
    },
    {
      "pair": [
        "USD",
        "ESS"
      ],
      "minimalOrder": {
        "amount": "15860.0",
        "unit": "asset"
      }
    },
    {
      "pair": [
        "BTC",
        "ESS"
      ],
      "minimalOrder": {
        "amount": "15860.0",
        "unit": "asset"
      }
    },
    {
      "pair": [
        "ETH",
        "ESS"
      ],
      "minimalOrder": {
        "amount": "15860.0",
        "unit": "asset"
      }
    },
    {
      "pair": [
        "USD",
        "ATM"
      ],
      "minimalOrder": {
        "amount": "16930.0",
        "unit": "asset"
      }
    },
    {
      "pair": [
        "BTC",
        "ATM"
      ],
      "minimalOrder": {
        "amount": "16930.0",
        "unit": "asset"
      }
    },
    {
      "pair": [
        "ETH",
        "ATM"
      ],
      "minimalOrder": {
        "amount": "16930.0",
        "unit": "asset"
      }
    },
    {
      "pair": [
        "USD",
        "HOT"
      ],
      "minimalOrder": {
        "amount": "4082.0",
        "unit": "asset"
      }
    },
    {
      "pair": [
        "BTC",
        "HOT"
      ],
      "minimalOrder": {
        "amount": "4082.0",
        "unit": "asset"
      }
    },
    {
      "pair": [
        "ETH",
        "HOT"
      ],
      "minimalOrder": {
        "amount": "4082.0",
        "unit": "asset"
      }
    },
    {
      "pair": [
        "USD",
        "DTA"
      ],
      "minimalOrder": {
        "amount": "14146.0",
        "unit": "asset"
      }
    },
    {
      "pair": [
        "BTC",
        "DTA"
      ],
      "minimalOrder": {
        "amount": "14146.0",
        "unit": "asset"
      }
    },
    {
      "pair": [
        "ETH",
        "DTA"
      ],
      "minimalOrder": {
        "amount": "14146.0",
        "unit": "asset"
      }
    },
    {
      "pair": [
        "USD",
        "IQX"
      ],
      "minimalOrder": {
        "amount": "4476.0",
        "unit": "asset"
      }
    },
    {
      "pair": [
        "BTC",
        "IQX"
      ],
      "minimalOrder": {
        "amount": "4476.0",
        "unit": "asset"
      }
    },
    {
      "pair": [
        "EOS",
        "IQX"
      ],
      "minimalOrder": {
        "amount": "4476.0",
        "unit": "asset"
      }
    },
    {
      "pair": [
        "USD",
        "WPR"
      ],
      "minimalOrder": {
        "amount": "876.0",
        "unit": "asset"
      }
    },
    {
      "pair": [
        "BTC",
        "WPR"
      ],
      "minimalOrder": {
        "amount": "876.0",
        "unit": "asset"
      }
    },
    {
      "pair": [
        "ETH",
        "WPR"
      ],
      "minimalOrder": {
        "amount": "876.0",
        "unit": "asset"
      }
    },
    {
      "pair": [
        "USD",
        "ZIL"
      ],
      "minimalOrder": {
        "amount": "738.0",
        "unit": "asset"
      }
    },
    {
      "pair": [
        "BTC",
        "ZIL"
      ],
      "minimalOrder": {
        "amount": "738.0",
        "unit": "asset"
      }
    },
    {
      "pair": [
        "ETH",
        "ZIL"
      ],
      "minimalOrder": {
        "amount": "738.0",
        "unit": "asset"
      }
    },
    {
      "pair": [
        "USD",
        "BNT"
      ],
      "minimalOrder": {
        "amount": "22.0",
        "unit": "asset"
      }
    },
    {
      "pair": [
        "BTC",
        "BNT"
      ],
      "minimalOrder": {
        "amount": "22.0",
        "unit": "asset"
      }
    },
    {
      "pair": [
        "ETH",
        "BNT"
      ],
      "minimalOrder": {
        "amount": "22.0",
        "unit": "asset"
      }
    },
    {
      "pair": [
        "USD",
        "ABS"
      ],
      "minimalOrder": {
        "amount": "2198.0",
        "unit": "asset"
      }
    },
    {
      "pair": [
        "ETH",
        "ABS"
      ],
      "minimalOrder": {
        "amount": "2198.0",
        "unit": "asset"
      }
    },
    {
      "pair": [
        "USD",
        "XRA"
      ],
      "minimalOrder": {
        "amount": "658.0",
        "unit": "asset"
      }
    },
    {
      "pair": [
        "ETH",
        "XRA"
      ],
      "minimalOrder": {
        "amount": "658.0",
        "unit": "asset"
      }
    },
    {
      "pair": [
        "USD",
        "MAN"
      ],
      "minimalOrder": {
        "amount": "152.0",
        "unit": "asset"
      }
    },
    {
      "pair": [
        "ETH",
        "MAN"
      ],
      "minimalOrder": {
        "amount": "152.0",
        "unit": "asset"
      }
    },
    {
      "pair": [
        "USD",
        "BBN"
      ],
      "minimalOrder": {
        "amount": "11554.0",
        "unit": "asset"
      }
    },
    {
      "pair": [
        "ETH",
        "BBN"
      ],
      "minimalOrder": {
        "amount": "11554.0",
        "unit": "asset"
      }
    },
    {
      "pair": [
        "USD",
        "NIO"
      ],
      "minimalOrder": {
        "amount": "2146.0",
        "unit": "asset"
      }
    },
    {
      "pair": [
        "ETH",
        "NIO"
      ],
      "minimalOrder": {
        "amount": "2146.0",
        "unit": "asset"
      }
    },
    {
      "pair": [
        "USD",
        "DGX"
      ],
      "minimalOrder": {
        "amount": "0.2",
        "unit": "asset"
      }
    },
    {
      "pair": [
        "ETH",
        "DGX"
      ],
      "minimalOrder": {
        "amount": "0.2",
        "unit": "asset"
      }
    },
    {
      "pair": [
        "USD",
        "VET"
      ],
      "minimalOrder": {
        "amount": "2914.0",
        "unit": "asset"
      }
    },
    {
      "pair": [
        "BTC",
        "VET"
      ],
      "minimalOrder": {
        "amount": "2914.0",
        "unit": "asset"
      }
    },
    {
      "pair": [
        "ETH",
        "VET"
      ],
      "minimalOrder": {
        "amount": "2914.0",
        "unit": "asset"
      }
    },
    {
      "pair": [
        "USD",
        "UTN"
      ],
      "minimalOrder": {
        "amount": "3718.0",
        "unit": "asset"
      }
    },
    {
      "pair": [
        "ETH",
        "UTN"
      ],
      "minimalOrder": {
        "amount": "3718.0",
        "unit": "asset"
      }
    },
    {
      "pair": [
        "USD",
        "TKN"
      ],
      "minimalOrder": {
        "amount": "26.0",
        "unit": "asset"
      }
    },
    {
      "pair": [
        "ETH",
        "TKN"
      ],
      "minimalOrder": {
        "amount": "26.0",
        "unit": "asset"
      }
    },
    {
      "pair": [
        "USD",
        "GOT"
      ],
      "minimalOrder": {
        "amount": "22.0",
        "unit": "asset"
      }
    },
    {
      "pair": [
        "EUR",
        "GOT"
      ],
      "minimalOrder": {
        "amount": "22.0",
        "unit": "asset"
      }
    },
    {
      "pair": [
        "ETH",
        "GOT"
      ],
      "minimalOrder": {
        "amount": "22.0",
        "unit": "asset"
      }
    },
    {
      "pair": [
        "USD",
        "XTZ"
      ],
      "minimalOrder": {
        "amount": "26.0",
        "unit": "asset"
      }
    },
    {
      "pair": [
        "BTC",
        "XTZ"
      ],
      "minimalOrder": {
        "amount": "26.0",
        "unit": "asset"
      }
    },
    {
      "pair": [
        "USD",
        "CNN"
      ],
      "minimalOrder": {
        "amount": "95352.0",
        "unit": "asset"
      }
    },
    {
      "pair": [
        "ETH",
        "CNN"
      ],
      "minimalOrder": {
        "amount": "95352.0",
        "unit": "asset"
      }
    },
    {
      "pair": [
        "USD",
        "BOX"
      ],
      "minimalOrder": {
        "amount": "5250.0",
        "unit": "asset"
      }
    },
    {
      "pair": [
        "ETH",
        "BOX"
      ],
      "minimalOrder": {
        "amount": "5250.0",
        "unit": "asset"
      }
    },
    {
      "pair": [
        "EUR",
        "TRX"
      ],
      "minimalOrder": {
        "amount": "838.0",
        "unit": "asset"
      }
    },
    {
      "pair": [
        "GBP",
        "TRX"
      ],
      "minimalOrder": {
        "amount": "838.0",
        "unit": "asset"
      }
    },
    {
      "pair": [
        "JPY",
        "TRX"
      ],
      "minimalOrder": {
        "amount": "838.0",
        "unit": "asset"
      }
    },
    {
      "pair": [
        "USD",
        "MGO"
      ],
      "minimalOrder": {
        "amount": "92.0",
        "unit": "asset"
      }
    },
    {
      "pair": [
        "ETH",
        "MGO"
      ],
      "minimalOrder": {
        "amount": "92.0",
        "unit": "asset"
      }
    },
    {
      "pair": [
        "USD",
        "RTE"
      ],
      "minimalOrder": {
        "amount": "8298.0",
        "unit": "asset"
      }
    },
    {
      "pair": [
        "ETH",
        "RTE"
      ],
      "minimalOrder": {
        "amount": "8298.0",
        "unit": "asset"
      }
    },
    {
      "pair": [
        "USD",
        "YGG"
      ],
      "minimalOrder": {
        "amount": "29408.0",
        "unit": "asset"
      }
    },
    {
      "pair": [
        "ETH",
        "YGG"
      ],
      "minimalOrder": {
        "amount": "29408.0",
        "unit": "asset"
      }
    },
    {
      "pair": [
        "USD",
        "MLN"
      ],
      "minimalOrder": {
        "amount": "2.0",
        "unit": "asset"
      }
    },
    {
      "pair": [
        "ETH",
        "MLN"
      ],
      "minimalOrder": {
        "amount": "2.0",
        "unit": "asset"
      }
    },
    {
      "pair": [
        "USD",
        "WTC"
      ],
      "minimalOrder": {
        "amount": "10.0",
        "unit": "asset"
      }
    },
    {
      "pair": [
        "ETH",
        "WTC"
      ],
      "minimalOrder": {
        "amount": "10.0",
        "unit": "asset"
      }
    },
    {
      "pair": [
        "USD",
        "CSX"
      ],
      "minimalOrder": {
        "amount": "162.0",
        "unit": "asset"
      }
    },
    {
      "pair": [
        "ETH",
        "CSX"
      ],
      "minimalOrder": {
        "amount": "162.0",
        "unit": "asset"
      }
    },
    {
      "pair": [
        "USD",
        "OMN"
      ],
      "minimalOrder": {
        "amount": "6.0",
        "unit": "asset"
      }
    },
    {
      "pair": [
        "BTC",
        "OMN"
      ],
      "minimalOrder": {
        "amount": "6.0",
        "unit": "asset"
      }
    },
    {
      "pair": [
        "USD",
        "INT"
      ],
      "minimalOrder": {
        "amount": "778.0",
        "unit": "asset"
      }
    },
    {
      "pair": [
        "ETH",
        "INT"
      ],
      "minimalOrder": {
        "amount": "778.0",
        "unit": "asset"
      }
    },
    {
      "pair": [
        "USD",
        "DRN"
      ],
      "minimalOrder": {
        "amount": "136.0",
        "unit": "asset"
      }
    },
    {
      "pair": [
        "ETH",
        "DRN"
      ],
      "minimalOrder": {
        "amount": "136.0",
        "unit": "asset"
      }
    },
    {
      "pair": [
        "USD",
        "PNK"
      ],
      "minimalOrder": {
        "amount": "2446.0",
        "unit": "asset"
      }
    },
    {
      "pair": [
        "ETH",
        "PNK"
      ],
      "minimalOrder": {
        "amount": "2446.0",
        "unit": "asset"
      }
    },
    {
      "pair": [
        "USD",
        "DGB"
      ],
      "minimalOrder": {
        "amount": "1174.0",
        "unit": "asset"
      }
    },
    {
      "pair": [
        "BTC",
        "DGB"
      ],
      "minimalOrder": {
        "amount": "1174.0",
        "unit": "asset"
      }
    },
    {
      "pair": [
        "USD",
        "BSV"
      ],
      "minimalOrder": {
        "amount": "0.2",
        "unit": "asset"
      }
    },
    {
      "pair": [
        "BTC",
        "BSV"
      ],
      "minimalOrder": {
        "amount": "0.2",
        "unit": "asset"
      }
    },
    {
      "pair": [
        "USD",
        "BAB"
      ],
      "minimalOrder": {
        "amount": "0.2",
        "unit": "asset"
      }
    },
    {
      "pair": [
        "BTC",
        "BAB"
      ],
      "minimalOrder": {
        "amount": "0.2",
        "unit": "asset"
      }
    },
    {
      "pair": [
        "USD",
        "WLO"
      ],
      "minimalOrder": {
        "amount": "332.0",
        "unit": "asset"
      }
    },
    {
      "pair": [
        "XLM",
        "WLO"
      ],
      "minimalOrder": {
        "amount": "332.0",
        "unit": "asset"
      }
    },
    {
      "pair": [
        "USD",
        "VLD"
      ],
      "minimalOrder": {
        "amount": "4062.0",
        "unit": "asset"
      }
    },
    {
      "pair": [
        "ETH",
        "VLD"
      ],
      "minimalOrder": {
        "amount": "4062.0",
        "unit": "asset"
      }
    },
    {
      "pair": [
        "USD",
        "ENJ"
      ],
      "minimalOrder": {
        "amount": "126.0",
        "unit": "asset"
      }
    },
    {
      "pair": [
        "ETH",
        "ENJ"
      ],
      "minimalOrder": {
        "amount": "126.0",
        "unit": "asset"
      }
    },
    {
      "pair": [
        "USD",
        "ONL"
      ],
      "minimalOrder": {
        "amount": "278.0",
        "unit": "asset"
      }
    },
    {
      "pair": [
        "ETH",
        "ONL"
      ],
      "minimalOrder": {
        "amount": "278.0",
        "unit": "asset"
      }
    },
    {
      "pair": [
        "USD",
        "RBT"
      ],
      "minimalOrder": {
        "amount": "0.002",
        "unit": "asset"
      }
    },
    {
      "pair": [
        "BTC",
        "RBT"
      ],
      "minimalOrder": {
        "amount": "0.002",
        "unit": "asset"
      }
    },
    {
      "pair": [
        "USD",
        "UST"
      ],
      "minimalOrder": {
        "amount": "10.0",
        "unit": "asset"
      }
    },
    {
      "pair": [
        "EUR",
        "EUT"
      ],
      "minimalOrder": {
        "amount": "10.0",
        "unit": "asset"
      }
    },
    {
      "pair": [
        "USD",
        "EUT"
      ],
      "minimalOrder": {
        "amount": "10.0",
        "unit": "asset"
      }
    },
    {
      "pair": [
        "USD",
        "GSD"
      ],
      "minimalOrder": {
        "amount": "10.0",
        "unit": "asset"
      }
    },
    {
      "pair": [
        "USD",
        "UDC"
      ],
      "minimalOrder": {
        "amount": "10.0",
        "unit": "asset"
      }
    },
    {
      "pair": [
        "USD",
        "TSD"
      ],
      "minimalOrder": {
        "amount": "10.0",
        "unit": "asset"
      }
    },
    {
      "pair": [
        "USD",
        "PAX"
      ],
      "minimalOrder": {
        "amount": "10.0",
        "unit": "asset"
      }
    },
    {
      "pair": [
        "USD",
        "RIF"
      ],
      "minimalOrder": {
        "amount": "138.0",
        "unit": "asset"
      }
    },
    {
      "pair": [
        "BTC",
        "RIF"
      ],
      "minimalOrder": {
        "amount": "138.0",
        "unit": "asset"
      }
    },
    {
      "pair": [
        "USD",
        "PAS"
      ],
      "minimalOrder": {
        "amount": "3686.0",
        "unit": "asset"
      }
    },
    {
      "pair": [
        "ETH",
        "PAS"
      ],
      "minimalOrder": {
        "amount": "3686.0",
        "unit": "asset"
      }
    },
    {
      "pair": [
        "USD",
        "VSY"
      ],
      "minimalOrder": {
        "amount": "256.0",
        "unit": "asset"
      }
    },
    {
      "pair": [
        "BTC",
        "VSY"
      ],
      "minimalOrder": {
        "amount": "256.0",
        "unit": "asset"
      }
    },
    {
      "pair": [
        "DAI",
        "ZRX"
      ],
      "minimalOrder": {
        "amount": "44.0",
        "unit": "asset"
      }
    },
    {
      "pair": [
        "DAI",
        "MKR"
      ],
      "minimalOrder": {
        "amount": "0.02",
        "unit": "asset"
      }
    },
    {
      "pair": [
        "DAI",
        "OMG"
      ],
      "minimalOrder": {
        "amount": "10.0",
        "unit": "asset"
      }
    },
    {
      "pair": [
        "USD",
        "BTT"
      ],
      "minimalOrder": {
        "amount": "13034.0",
        "unit": "asset"
      }
    },
    {
      "pair": [
        "BTC",
        "BTT"
      ],
      "minimalOrder": {
        "amount": "13034.0",
        "unit": "asset"
      }
    },
    {
      "pair": [
        "UST",
        "BTC"
      ],
      "minimalOrder": {
        "amount": "0.002",
        "unit": "asset"
      }
    },
    {
      "pair": [
        "UST",
        "ETH"
      ],
      "minimalOrder": {
        "amount": "0.08",
        "unit": "asset"
      }
    },
    {
      "pair": [
        "USD",
        "CLO"
      ],
      "minimalOrder": {
        "amount": "2752.0",
        "unit": "asset"
      }
    },
    {
      "pair": [
        "BTC",
        "CLO"
      ],
      "minimalOrder": {
        "amount": "2752.0",
        "unit": "asset"
      }
    },
    {
      "pair": [
        "USD",
        "IMP"
      ],
      "minimalOrder": {
        "amount": "288.0",
        "unit": "asset"
      }
    },
    {
      "pair": [
        "ETH",
        "IMP"
      ],
      "minimalOrder": {
        "amount": "288.0",
        "unit": "asset"
      }
    }
  ]
}